<?xml version="1.0" encoding="iso-8859-1"?>
<!-- Generator: Adobe Illustrator 17.1.0, SVG Export Plug-In . SVG Version: 6.00 Build 0)  -->
<!DOCTYPE svg PUBLIC "-//W3C//DTD SVG 1.1//EN" "http://www.w3.org/Graphics/SVG/1.1/DTD/svg11.dtd">
<svg version="1.1" id="Layer_1" xmlns="http://www.w3.org/2000/svg" xmlns:xlink="http://www.w3.org/1999/xlink" x="0px" y="0px"
	 viewBox="0 0 60 60" style="enable-background:new 0 0 60 60;" xml:space="preserve">
<path style="fill-rule:evenodd;clip-rule:evenodd;fill:none;" d="M30,0c16.569,0,30,13.432,30,30c0,16.568-13.431,30-30,30
	S0,46.569,0,30C0,13.432,13.431,0,30,0z"/>
<path style="fill-rule:evenodd;clip-rule:evenodd;fill:none;" d="M58,30c0,15.464-12.536,28-28,28"/>
<path style="fill-rule:evenodd;clip-rule:evenodd;fill:none;" d="M30,2c15.464,0,28,12.536,28,28c0,15.464-12.536,28-28,28
	C14.536,58,2,45.464,2,30C2,14.536,14.536,2,30,2z"/>
</svg>
